{"page":1,"per_page":6,
    "videos":
    [
        {
            "id":3571264,
            "width":3840,
            "height":2160,
            "duration":33,
            "full_res":null,
            "tags":[],
            "url":"https://www.pexels.com/video/drone-view-of-big-waves-rushing-to-the-shore-3571264/",
            "image":"https://images.pexels.com/videos/3571264/free-video-3571264.jpg?auto=compress&cs=tinysrgb&fit=crop&h=630&w=1200",
            "avg_color":null,
            "user":{"id":1498112,"name":"Enrique Hoyos","url":"https://www.pexels.com/@enriquehoyos"},
            "video_files":
            [
                {
                    "id":368793,
                    "quality":
                    "sd","file_type":"video/mp4","width":960,"height":540,"link":"https://player.vimeo.com/external/384761655.sd.mp4?s=383ab4dbc773cd0d5ece3af208d8f963368f67e4&profile_id=165&oauth2_token_id=57447761"},{"id":368794,"quality":"sd","file_type":"video/mp4","width":426,"height":240,"link":"https://player.vimeo.com/external/384761655.sd.mp4?s=383ab4dbc773cd0d5ece3af208d8f963368f67e4&profile_id=139&oauth2_token_id=57447761"},{"id":368795,"quality":"hd","file_type":"video/mp4","width":2560,"height":1440,"link":"https://player.vimeo.com/external/384761655.hd.mp4?s=5eecd63d94629aa928726912a5601a7577a3ca8a&profile_id=170&oauth2_token_id=57447761"},{"id":368796,"quality":"hd","file_type":"video/mp4","width":1280,"height":720,"link":"https://player.vimeo.com/external/384761655.hd.mp4?s=5eecd63d94629aa928726912a5601a7577a3ca8a&profile_id=174&oauth2_token_id=57447761"},{"id":368797,"quality":"sd","file_type":"video/mp4","width":640,"height":360,"link":"https://player.vimeo.com/external/384761655.sd.mp4?s=383ab4dbc773cd0d5ece3af208d8f963368f67e4&profile_id=164&oauth2_token_id=57447761"},{"id":368798,"quality":"hd","file_type":"video/mp4","width":3840,"height":2160,"link":"https://player.vimeo.com/external/384761655.hd.mp4?s=5eecd63d94629aa928726912a5601a7577a3ca8a&profile_id=172&oauth2_token_id=57447761"},{"id":368799,"quality":"hd","file_type":"video/mp4","width":1920,"height":1080,"link":"https://player.vimeo.com/external/384761655.hd.mp4?s=5eecd63d94629aa928726912a5601a7577a3ca8a&profile_id=175&oauth2_token_id=57447761"},{"id":368800,"quality":"hls","file_type":"video/mp4","width":null,"height":null,"link":"https://player.vimeo.com/external/384761655.m3u8?s=98f0c4fc2fd9973ff5372c4f300117c8f9bb5953&oauth2_token_id=57447761"}],"video_pictures":[{"id":815098,"nr":0,"picture":"https://images.pexels.com/videos/3571264/pictures/preview-0.jpg"},{"id":815099,"nr":1,"picture":"https://images.pexels.com/videos/3571264/pictures/preview-1.jpg"},{"id":815100,"nr":2,"picture":"https://images.pexels.com/videos/3571264/pictures/preview-2.jpg"},{"id":815101,"nr":3,"picture":"https://images.pexels.com/videos/3571264/pictures/preview-3.jpg"},{"id":815102,"nr":4,"picture":"https://images.pexels.com/videos/3571264/pictures/preview-4.jpg"},{"id":815103,"nr":5,"picture":"https://images.pexels.com/videos/3571264/pictures/preview-5.jpg"},{"id":815104,"nr":6,"picture":"https://images.pexels.com/videos/3571264/pictures/preview-6.jpg"},{"id":815105,"nr":7,"picture":"https://images.pexels.com/videos/3571264/pictures/preview-7.jpg"},{"id":815106,"nr":8,"picture":"https://images.pexels.com/videos/3571264/pictures/preview-8.jpg"},{"id":815107,"nr":9,"picture":"https://images.pexels.com/videos/3571264/pictures/preview-9.jpg"},{"id":815108,"nr":10,"picture":"https://images.pexels.com/videos/3571264/pictures/preview-10.jpg"},{"id":815109,"nr":11,"picture":"https://images.pexels.com/videos/3571264/pictures/preview-11.jpg"},{"id":815110,"nr":12,"picture":"https://images.pexels.com/videos/3571264/pictures/preview-12.jpg"},{"id":815111,"nr":13,"picture":"https://images.pexels.com/videos/3571264/pictures/preview-13.jpg"},{"id":815112,"nr":14,"picture":"https://images.pexels.com/videos/3571264/pictures/preview-14.jpg"}]},{"id":6394054,"width":4096,"height":2048,"duration":12,"full_res":null,"tags":[],"url":"https://www.pexels.com/video/waterfall-in-the-forest-6394054/","image":"https://images.pexels.com/videos/6394054/adventure-beauty-forrest-hike-6394054.jpeg?auto=compress&cs=tinysrgb&fit=crop&h=630&w=1200","avg_color":null,"user":{"id":417939,"name":"Peter Fowler","url":"https://www.pexels.com/@peter-fowler-417939"},"video_files":[{"id":2160945,"quality":"hd","file_type":"video/mp4","width":2048,"height":1024,"link":"https://player.vimeo.com/external/496797033.hd.mp4?s=b87c1e6e87a81a60cdfc9851b3f739c115a23adf&profile_id=175&oauth2_token_id=57447761"},{"id":2160946,"quality":"hd","file_type":"video/mp4","width":1366,"height":684,"link":"https://player.vimeo.com/external/496797033.hd.mp4?s=b87c1e6e87a81a60cdfc9851b3f739c115a23adf&profile_id=174&oauth2_token_id=57447761"},{"id":2160947,"quality":"hd","file_type":"video/mp4","width":4096,"height":2048,"link":"https://player.vimeo.com/external/496797033.hd.mp4?s=b87c1e6e87a81a60cdfc9851b3f739c115a23adf&profile_id=172&oauth2_token_id=57447761"},{"id":2160948,"quality":"hd","file_type":"video/mp4","width":2732,"height":1366,"link":"https://player.vimeo.com/external/496797033.hd.mp4?s=b87c1e6e87a81a60cdfc9851b3f739c115a23adf&profile_id=170&oauth2_token_id=57447761"},{"id":2160949,"quality":"sd","file_type":"video/mp4","width":426,"height":214,"link":"https://player.vimeo.com/external/496797033.sd.mp4?s=5ed472674c6878067353d85224650f6bc4f4a247&profile_id=139&oauth2_token_id=57447761"},{"id":2160950,"quality":"sd","file_type":"video/mp4","width":960,"height":480,"link":"https://player.vimeo.com/external/496797033.sd.mp4?s=5ed472674c6878067353d85224650f6bc4f4a247&profile_id=165&oauth2_token_id=57447761"},{"id":2160951,"quality":"sd","file_type":"video/mp4","width":640,"height":320,"link":"https://player.vimeo.com/external/496797033.sd.mp4?s=5ed472674c6878067353d85224650f6bc4f4a247&profile_id=164&oauth2_token_id=57447761"}],"video_pictures":[{"id":4391143,"nr":0,"picture":"https://images.pexels.com/videos/6394054/pictures/preview-0.jpg"},{"id":4391144,"nr":1,"picture":"https://images.pexels.com/videos/6394054/pictures/preview-1.jpg"},{"id":4391145,"nr":2,"picture":"https://images.pexels.com/videos/6394054/pictures/preview-2.jpg"},{"id":4391146,"nr":3,"picture":"https://images.pexels.com/videos/6394054/pictures/preview-3.jpg"},{"id":4391147,"nr":4,"picture":"https://images.pexels.com/videos/6394054/pictures/preview-4.jpg"},{"id":4391148,"nr":5,"picture":"https://images.pexels.com/videos/6394054/pictures/preview-5.jpg"},{"id":4391149,"nr":6,"picture":"https://images.pexels.com/videos/6394054/pictures/preview-6.jpg"},{"id":4391150,"nr":7,"picture":"https://images.pexels.com/videos/6394054/pictures/preview-7.jpg"},{"id":4391151,"nr":8,"picture":"https://images.pexels.com/videos/6394054/pictures/preview-8.jpg"},{"id":4391152,"nr":9,"picture":"https://images.pexels.com/videos/6394054/pictures/preview-9.jpg"},{"id":4391153,"nr":10,"picture":"https://images.pexels.com/videos/6394054/pictures/preview-10.jpg"},{"id":4391154,"nr":11,"picture":"https://images.pexels.com/videos/6394054/pictures/preview-11.jpg"},{"id":4391155,"nr":12,"picture":"https://images.pexels.com/videos/6394054/pictures/preview-12.jpg"},{"id":4391156,"nr":13,"picture":"https://images.pexels.com/videos/6394054/pictures/preview-13.jpg"},{"id":4391157,"nr":14,"picture":"https://images.pexels.com/videos/6394054/pictures/preview-14.jpg"}]},{"id":6981411,"width":1920,"height":1080,"duration":14,"full_res":null,"tags":[],"url":"https://www.pexels.com/video/a-magnificent-view-of-the-waterfalls-6981411/","image":"https://images.pexels.com/videos/6981411/pexels-photo-6981411.jpeg?auto=compress&cs=tinysrgb&fit=crop&h=630&w=1200","avg_color":null,"user":{"id":11437196,"name":"Mikhail Nilov","url":"https://www.pexels.com/@mikhail-nilov"},"video_files":[{"id":2673285,"quality":"hd","file_type":"video/mp4","width":1920,"height":1080,"link":"https://player.vimeo.com/external/517619980.hd.mp4?s=dcab905de99f4814ba133b1b89347626363473b3&profile_id=175&oauth2_token_id=57447761"},{"id":2673286,"quality":"hd","file_type":"video/mp4","width":1280,"height":720,"link":"https://player.vimeo.com/external/517619980.hd.mp4?s=dcab905de99f4814ba133b1b89347626363473b3&profile_id=174&oauth2_token_id=57447761"},{"id":2673287,"quality":"sd","file_type":"video/mp4","width":426,"height":240,"link":"https://player.vimeo.com/external/517619980.sd.mp4?s=61be3cadb6566d23fb20ad2cf54876e2a85a78c5&profile_id=139&oauth2_token_id=57447761"},{"id":2673288,"quality":"sd","file_type":"video/mp4","width":960,"height":540,"link":"https://player.vimeo.com/external/517619980.sd.mp4?s=61be3cadb6566d23fb20ad2cf54876e2a85a78c5&profile_id=165&oauth2_token_id=57447761"},{"id":2673289,"quality":"sd","file_type":"video/mp4","width":640,"height":360,"link":"https://player.vimeo.com/external/517619980.sd.mp4?s=61be3cadb6566d23fb20ad2cf54876e2a85a78c5&profile_id=164&oauth2_token_id=57447761"}],"video_pictures":[{"id":5526606,"nr":0,"picture":"https://images.pexels.com/videos/6981411/pictures/preview-0.jpg"},{"id":5526617,"nr":1,"picture":"https://images.pexels.com/videos/6981411/pictures/preview-1.jpg"},{"id":5526631,"nr":2,"picture":"https://images.pexels.com/videos/6981411/pictures/preview-2.jpg"},{"id":5526642,"nr":3,"picture":"https://images.pexels.com/videos/6981411/pictures/preview-3.jpg"},{"id":5526653,"nr":4,"picture":"https://images.pexels.com/videos/6981411/pictures/preview-4.jpg"},{"id":5526673,"nr":5,"picture":"https://images.pexels.com/videos/6981411/pictures/preview-5.jpg"},{"id":5526683,"nr":6,"picture":"https://images.pexels.com/videos/6981411/pictures/preview-6.jpg"},{"id":5526691,"nr":7,"picture":"https://images.pexels.com/videos/6981411/pictures/preview-7.jpg"},{"id":5526699,"nr":8,"picture":"https://images.pexels.com/videos/6981411/pictures/preview-8.jpg"},{"id":5526703,"nr":9,"picture":"https://images.pexels.com/videos/6981411/pictures/preview-9.jpg"},{"id":5526710,"nr":10,"picture":"https://images.pexels.com/videos/6981411/pictures/preview-10.jpg"},{"id":5526717,"nr":11,"picture":"https://images.pexels.com/videos/6981411/pictures/preview-11.jpg"},{"id":5526721,"nr":12,"picture":"https://images.pexels.com/videos/6981411/pictures/preview-12.jpg"},{"id":5526729,"nr":13,"picture":"https://images.pexels.com/videos/6981411/pictures/preview-13.jpg"},{"id":5526737,"nr":14,"picture":"https://images.pexels.com/videos/6981411/pictures/preview-14.jpg"}]},{"id":3173312,"width":3840,"height":2160,"duration":6,"full_res":null,"tags":[],"url":"https://www.pexels.com/video/the-strong-force-of-niagara-falls-3173312/","image":"https://images.pexels.com/videos/3173312/free-video-3173312.jpg?auto=compress&cs=tinysrgb&fit=crop&h=630&w=1200","avg_color":null,"user":{"id":1659830,"name":"Aric Shelby","url":"https://www.pexels.com/@aric-shelby-1659830"},"video_files":[{"id":249595,"quality":"hd","file_type":"video/mp4","width":1280,"height":720,"link":"https://player.vimeo.com/external/370762164.hd.mp4?s=84f78c119b8bd17aaddb7bd5ce5a59eaac87c13d&profile_id=174&oauth2_token_id=57447761"},{"id":249596,"quality":"sd","file_type":"video/mp4","width":640,"height":360,"link":"https://player.vimeo.com/external/370762164.sd.mp4?s=79162c914dc5d9e4576be4fde2daff51f534083a&profile_id=164&oauth2_token_id=57447761"},{"id":249597,"quality":"hd","file_type":"video/mp4","width":3840,"height":2160,"link":"https://player.vimeo.com/external/370762164.hd.mp4?s=84f78c119b8bd17aaddb7bd5ce5a59eaac87c13d&profile_id=172&oauth2_token_id=57447761"},{"id":249598,"quality":"hd","file_type":"video/mp4","width":1920,"height":1080,"link":"https://player.vimeo.com/external/370762164.hd.mp4?s=84f78c119b8bd17aaddb7bd5ce5a59eaac87c13d&profile_id=175&oauth2_token_id=57447761"},{"id":249599,"quality":"sd","file_type":"video/mp4","width":960,"height":540,"link":"https://player.vimeo.com/external/370762164.sd.mp4?s=79162c914dc5d9e4576be4fde2daff51f534083a&profile_id=165&oauth2_token_id=57447761"},{"id":249600,"quality":"sd","file_type":"video/mp4","width":426,"height":240,"link":"https://player.vimeo.com/external/370762164.sd.mp4?s=79162c914dc5d9e4576be4fde2daff51f534083a&profile_id=139&oauth2_token_id=57447761"},{"id":249601,"quality":"hd","file_type":"video/mp4","width":2560,"height":1440,"link":"https://player.vimeo.com/external/370762164.hd.mp4?s=84f78c119b8bd17aaddb7bd5ce5a59eaac87c13d&profile_id=170&oauth2_token_id=57447761"},{"id":249602,"quality":"hls","file_type":"video/mp4","width":null,"height":null,"link":"https://player.vimeo.com/external/370762164.m3u8?s=fc1f750be4603b1f158a948a1aad98095229b78e&oauth2_token_id=57447761"}],"video_pictures":[{"id":564924,"nr":0,"picture":"https://images.pexels.com/videos/3173312/pictures/preview-0.jpg"},{"id":564931,"nr":1,"picture":"https://images.pexels.com/videos/3173312/pictures/preview-1.jpg"},{"id":564936,"nr":2,"picture":"https://images.pexels.com/videos/3173312/pictures/preview-2.jpg"},{"id":564943,"nr":3,"picture":"https://images.pexels.com/videos/3173312/pictures/preview-3.jpg"},{"id":564950,"nr":4,"picture":"https://images.pexels.com/videos/3173312/pictures/preview-4.jpg"},{"id":564956,"nr":5,"picture":"https://images.pexels.com/videos/3173312/pictures/preview-5.jpg"},{"id":564961,"nr":6,"picture":"https://images.pexels.com/videos/3173312/pictures/preview-6.jpg"},{"id":564967,"nr":7,"picture":"https://images.pexels.com/videos/3173312/pictures/preview-7.jpg"},{"id":564973,"nr":8,"picture":"https://images.pexels.com/videos/3173312/pictures/preview-8.jpg"},{"id":564979,"nr":9,"picture":"https://images.pexels.com/videos/3173312/pictures/preview-9.jpg"},{"id":564984,"nr":10,"picture":"https://images.pexels.com/videos/3173312/pictures/preview-10.jpg"},{"id":564988,"nr":11,"picture":"https://images.pexels.com/videos/3173312/pictures/preview-11.jpg"},{"id":564993,"nr":12,"picture":"https://images.pexels.com/videos/3173312/pictures/preview-12.jpg"},{"id":565000,"nr":13,"picture":"https://images.pexels.com/videos/3173312/pictures/preview-13.jpg"},{"id":565006,"nr":14,"picture":"https://images.pexels.com/videos/3173312/pictures/preview-14.jpg"}]},{"id":4763824,"width":3840,"height":2160,"duration":14,"full_res":null,"tags":[],"url":"https://www.pexels.com/video/drone-flying-over-the-mountain-peak-4763824/","image":"https://images.pexels.com/videos/4763824/4k-4k50fps-adventure-backpack-4763824.jpeg?auto=compress&cs=tinysrgb&fit=crop&h=630&w=1200","avg_color":null,"user":{"id":649765,"name":"Yaroslav Shuraev","url":"https://www.pexels.com/@yaroslav-shuraev"},"video_files":[{"id":954645,"quality":"hd","file_type":"video/mp4","width":3840,"height":2160,"link":"https://player.vimeo.com/external/434045526.hd.mp4?s=20f75bfc99c6577c31e4a530dbc0776ce9ba4c27&profile_id=172&oauth2_token_id=57447761"},{"id":954646,"quality":"hd","file_type":"video/mp4","width":1280,"height":720,"link":"https://player.vimeo.com/external/434045526.hd.mp4?s=20f75bfc99c6577c31e4a530dbc0776ce9ba4c27&profile_id=174&oauth2_token_id=57447761"},{"id":954647,"quality":"sd","file_type":"video/mp4","width":640,"height":360,"link":"https://player.vimeo.com/external/434045526.sd.mp4?s=c27eecc69a27dbc4ff2b87d38afc35f1a9e7c02d&profile_id=164&oauth2_token_id=57447761"},{"id":954648,"quality":"hd","file_type":"video/mp4","width":2560,"height":1440,"link":"https://player.vimeo.com/external/434045526.hd.mp4?s=20f75bfc99c6577c31e4a530dbc0776ce9ba4c27&profile_id=170&oauth2_token_id=57447761"},{"id":954649,"quality":"hd","file_type":"video/mp4","width":1920,"height":1080,"link":"https://player.vimeo.com/external/434045526.hd.mp4?s=20f75bfc99c6577c31e4a530dbc0776ce9ba4c27&profile_id=175&oauth2_token_id=57447761"},{"id":954650,"quality":"sd","file_type":"video/mp4","width":426,"height":240,"link":"https://player.vimeo.com/external/434045526.sd.mp4?s=c27eecc69a27dbc4ff2b87d38afc35f1a9e7c02d&profile_id=139&oauth2_token_id=57447761"},{"id":954651,"quality":"sd","file_type":"video/mp4","width":960,"height":540,"link":"https://player.vimeo.com/external/434045526.sd.mp4?s=c27eecc69a27dbc4ff2b87d38afc35f1a9e7c02d&profile_id=165&oauth2_token_id=57447761"},{"id":954652,"quality":"hls","file_type":"video/mp4","width":null,"height":null,"link":"https://player.vimeo.com/external/434045526.m3u8?s=1e6925e6e9aa3642b4c5d5106dd456dea6c2cd17&oauth2_token_id=57447761"}],"video_pictures":[{"id":1911019,"nr":0,"picture":"https://images.pexels.com/videos/4763824/pictures/preview-0.jpg"},{"id":1911020,"nr":1,"picture":"https://images.pexels.com/videos/4763824/pictures/preview-1.jpg"},{"id":1911021,"nr":2,"picture":"https://images.pexels.com/videos/4763824/pictures/preview-2.jpg"},{"id":1911022,"nr":3,"picture":"https://images.pexels.com/videos/4763824/pictures/preview-3.jpg"},{"id":1911023,"nr":4,"picture":"https://images.pexels.com/videos/4763824/pictures/preview-4.jpg"},{"id":1911024,"nr":5,"picture":"https://images.pexels.com/videos/4763824/pictures/preview-5.jpg"},{"id":1911025,"nr":6,"picture":"https://images.pexels.com/videos/4763824/pictures/preview-6.jpg"},{"id":1911026,"nr":7,"picture":"https://images.pexels.com/videos/4763824/pictures/preview-7.jpg"},{"id":1911027,"nr":8,"picture":"https://images.pexels.com/videos/4763824/pictures/preview-8.jpg"},{"id":1911028,"nr":9,"picture":"https://images.pexels.com/videos/4763824/pictures/preview-9.jpg"},{"id":1911029,"nr":10,"picture":"https://images.pexels.com/videos/4763824/pictures/preview-10.jpg"},{"id":1911030,"nr":11,"picture":"https://images.pexels.com/videos/4763824/pictures/preview-11.jpg"},{"id":1911031,"nr":12,"picture":"https://images.pexels.com/videos/4763824/pictures/preview-12.jpg"},{"id":1911032,"nr":13,"picture":"https://images.pexels.com/videos/4763824/pictures/preview-13.jpg"},{"id":1911033,"nr":14,"picture":"https://images.pexels.com/videos/4763824/pictures/preview-14.jpg"}]},{"id":8820216,"width":3840,"height":2160,"duration":20,"full_res":null,"tags":[],"url":"https://www.pexels.com/video/aerial-shot-of-a-landscape-8820216/","image":"https://images.pexels.com/videos/8820216/aerial-footage-aerial-video-aerial-view-at-the-beach-8820216.jpeg?auto=compress&cs=tinysrgb&fit=crop&h=630&w=1200","avg_color":null,"user":{"id":1522664,"name":"Taryn Elliott","url":"https://www.pexels.com/@taryn-elliott"},"video_files":[{"id":3885664,"quality":"sd","file_type":"video/mp4","width":960,"height":540,"link":"https://player.vimeo.com/external/576787721.sd.mp4?s=0d7d41391cf527ddd857113d790712a09fef9ce2&profile_id=165&oauth2_token_id=57447761"},{"id":3885665,"quality":"hd","file_type":"video/mp4","width":1280,"height":720,"link":"https://player.vimeo.com/external/576787721.hd.mp4?s=deb7c7a931e53b3982f5c5a143ad737bf94543df&profile_id=174&oauth2_token_id=57447761"},{"id":3885666,"quality":"hd","file_type":"video/mp4","width":3840,"height":2160,"link":"https://player.vimeo.com/external/576787721.hd.mp4?s=deb7c7a931e53b3982f5c5a143ad737bf94543df&profile_id=172&oauth2_token_id=57447761"},{"id":3885667,"quality":"hd","file_type":"video/mp4","width":2560,"height":1440,"link":"https://player.vimeo.com/external/576787721.hd.mp4?s=deb7c7a931e53b3982f5c5a143ad737bf94543df&profile_id=170&oauth2_token_id=57447761"},{"id":3885668,"quality":"hd","file_type":"video/mp4","width":1920,"height":1080,"link":"https://player.vimeo.com/external/576787721.hd.mp4?s=deb7c7a931e53b3982f5c5a143ad737bf94543df&profile_id=175&oauth2_token_id=57447761"},{"id":3885669,"quality":"sd","file_type":"video/mp4","width":640,"height":360,"link":"https://player.vimeo.com/external/576787721.sd.mp4?s=0d7d41391cf527ddd857113d790712a09fef9ce2&profile_id=164&oauth2_token_id=57447761"}],"video_pictures":[{"id":8879206,"nr":0,"picture":"https://images.pexels.com/videos/8820216/pictures/preview-0.jpeg"},{"id":8879209,"nr":1,"picture":"https://images.pexels.com/videos/8820216/pictures/preview-1.jpeg"},{"id":8879213,"nr":2,"picture":"https://images.pexels.com/videos/8820216/pictures/preview-2.jpeg"},{"id":8879217,"nr":3,"picture":"https://images.pexels.com/videos/8820216/pictures/preview-3.jpeg"},{"id":8879221,"nr":4,"picture":"https://images.pexels.com/videos/8820216/pictures/preview-4.jpeg"},{"id":8879228,"nr":5,"picture":"https://images.pexels.com/videos/8820216/pictures/preview-5.jpeg"},{"id":8879233,"nr":6,"picture":"https://images.pexels.com/videos/8820216/pictures/preview-6.jpeg"},{"id":8879239,"nr":7,"picture":"https://images.pexels.com/videos/8820216/pictures/preview-7.jpeg"},{"id":8879246,"nr":8,"picture":"https://images.pexels.com/videos/8820216/pictures/preview-8.jpeg"},{"id":8879251,"nr":9,"picture":"https://images.pexels.com/videos/8820216/pictures/preview-9.jpeg"},{"id":8879256,"nr":10,"picture":"https://images.pexels.com/videos/8820216/pictures/preview-10.jpeg"},{"id":8879259,"nr":11,"picture":"https://images.pexels.com/videos/8820216/pictures/preview-11.jpeg"},{"id":8879262,"nr":12,"picture":"https://images.pexels.com/videos/8820216/pictures/preview-12.jpeg"},{"id":8879265,"nr":13,"picture":"https://images.pexels.com/videos/8820216/pictures/preview-13.jpeg"},{"id":8879269,"nr":14,"picture":"https://images.pexels.com/videos/8820216/pictures/preview-14.jpeg"}]}],"total_results":8000,"next_page":"https://api.pexels.com/v1/videos/search/?page=2&per_page=6&query=nature","url":"https://api-server.pexels.com/search/videos/nature/"}